<svg width="48" height="48" xmlns="http://www.w3.org/2000/svg">
 <!-- Generator: Sketch 58 (84663) - https://sketch.com -->
 <title>birthday</title>
 <desc>Created with Sketch.</desc>
 <defs>
  <linearGradient id="linearGradient-1" y2="0%" x2="0%" y1="100%" x1="100%">
   <stop offset="0%" stop-color="#fcc030"/>
   <stop offset="100%" stop-color="#fcc645"/>
  </linearGradient>
 </defs>
 <g>
  <title>Layer 1</title>
  <g fill-rule="evenodd" fill="none" id="birthday">
   <g id="svg_1">
    <circle r="24" cy="24" cx="24" opacity="0.88" fill="url(#linearGradient-1)" id="Oval-2"/>
    <path fill-rule="nonzero" fill="#FFFFFF" id="今月誕生日" d="m20.48133,14.414c0.852,0.552 1.344,0.828 2.304,1.272c0.264,-0.684 0.36,-0.876 0.708,-1.332c-1.176,-0.408 -2.052,-0.876 -3.024,-1.596c-0.864,-0.636 -1.548,-1.332 -2.076,-2.1l-1.488,0c-0.312,0.588 -0.9,1.224 -1.812,1.98c-0.864,0.72 -1.836,1.272 -3.096,1.776c0.312,0.384 0.492,0.696 0.708,1.224c0.912,-0.42 1.56,-0.768 2.268,-1.236l0,0.972c0.336,-0.036 0.636,-0.048 1.104,-0.048l3.228,0c0.456,0 0.84,0.012 1.176,0.048l0,-0.96zm-1.092,-0.24l-3.372,0l-0.3072,-0.00154c-0.1296,-0.0023 -0.2376,-0.00806 -0.3888,-0.02246c0.996,-0.732 1.608,-1.32 2.364,-2.292c0.756,0.984 1.356,1.56 2.412,2.304l-0.24057,0.00941c-0.13335,0.00259 -0.28743,0.00259 -0.46743,0.00259zm2.196,2.256c-0.228,0.048 -0.552,0.06 -1.236,0.06l-5.472,0c-0.552,0 -1.008,-0.024 -1.5,-0.072l0,1.356c0.504,-0.048 0.996,-0.072 1.488,-0.072l5.4,0l-1.968,2.424c-0.324,0.408 -0.612,0.708 -0.924,0.996l1.38,0.768c0.252,-0.384 0.456,-0.672 0.756,-1.068l2.316,-2.94l0.17423,-0.20889c0.12977,-0.15111 0.27377,-0.31111 0.35377,-0.39111l-0.768,-0.852zm11.07867,1.548l0,2.076c0,0.264 -0.084,0.324 -0.444,0.324c-0.492,0 -1.152,-0.048 -1.764,-0.144c0.204,0.492 0.276,0.768 0.348,1.344l0.6839,0.03401c0.19899,0.00755 0.37437,0.01165 0.5422,0.01322l0.1659,0.00077c0.792,0 1.128,-0.06 1.392,-0.24c0.3,-0.192 0.432,-0.54 0.432,-1.14l0.00163,-8.15779c0.00461,-0.45581 0.01997,-0.71501 0.05837,-0.97421l-0.26416,0.02693c-0.30443,0.02581 -0.61451,0.03307 -1.12784,0.03307l-5.004,0c-0.612,0 -0.936,-0.012 -1.404,-0.06l0.02467,0.26678c0.02765,0.37786 0.03533,0.85402 0.03533,1.54522l-0.00498,1.01366c-0.02591,2.42651 -0.15656,3.63911 -0.47502,4.62634c-0.276,0.9 -0.612,1.44 -1.284,2.112c0.468,0.336 0.768,0.636 1.116,1.104c0.684,-0.768 1.092,-1.464 1.416,-2.376c0.144,-0.42 0.24,-0.816 0.348,-1.428l5.208,0zm0,-1.224l-5.064,0l0.075,-1.029c0.015,-0.234 0.021,-0.393 0.021,-0.579l4.968,0l0,1.608zm-4.956,-2.832l0,-1.5l4.956,0l0,1.5l-4.956,0zm-12.588,18.32l-0.54,0l0,-3.528c0,-0.372 0.012,-0.648 0.06,-0.9l-1.188,0c0.036,0.252 0.06,0.552 0.06,0.924l0,3.504l-0.2865,-0.0195c-0.0825,-0.0075 -0.1575,-0.0165 -0.2415,-0.0285l0,1.212l0.22844,-0.02c0.15023,-0.01067 0.30756,-0.016 0.53956,-0.016l3.048,0c0.408,0 0.648,0.012 0.936,0.06l0,-1.236l-0.23069,0.02526c-0.19225,0.01662 -0.39674,0.02274 -0.70531,0.02274l-0.54,0l0,-2.628l0.696,0c0.288,0 0.492,0.012 0.744,0.048l0,-1.224c-0.216,0.048 -0.432,0.06 -0.792,0.06l-0.648,0l0,-2.148c0.528,-0.144 0.84,-0.252 1.536,-0.552l-0.72,-1.092c-0.56727,0.36 -1.13455,0.58116 -2.01737,0.78068l-0.27463,0.05932c-0.492,0.108 -0.792,0.144 -1.464,0.216l0,-0.012l-0.528,-0.588l-0.15191,0.01763c-0.10397,0.0098 -0.22194,0.01568 -0.40541,0.01764l-0.94268,0.00073c-0.348,0 -0.564,-0.012 -0.78,-0.036l0,1.188c0.192,-0.036 0.372,-0.048 0.624,-0.048l0.684,0l-0.16971,0.44904c-0.36405,0.93304 -0.72389,1.64856 -1.46229,2.95896l0.12614,-0.00259l0,0l0.48586,-0.02141l0,0l1.152,0l-0.05981,0.65025c-0.05794,0.558 -0.11419,0.87975 -0.20419,1.32975c-0.216,-0.576 -0.312,-0.912 -0.408,-1.428l-1.068,0.42l0.10104,0.23986l0,0l0.27778,0.73919c0.2422,0.62885 0.40554,0.98677 0.64118,1.40895c-0.3,0.648 -0.588,1.08 -1.056,1.584l0.00133,-2.32578c0.00267,-0.21689 0.01067,-0.33422 0.03467,-0.49422l-0.17422,0.02c-0.12178,0.01067 -0.27378,0.016 -0.56978,0.016l-1.596,0c-0.384,0 -0.576,-0.012 -0.84,-0.024c0.0288,0.2784 0.04224,0.48 0.04646,0.7584l0.00154,1.9776c0,0.456 -0.012,0.804 -0.06,1.188l1.116,0l0,-0.588l1.008,0l0,0.408l1.068,0l-0.01958,-0.2016c-0.00634,-0.09504 -0.00922,-0.216 -0.01642,-0.5184c0.288,0.24 0.48,0.468 0.732,0.864c0.48,-0.588 0.756,-1.02 1.068,-1.656c0.99861,1.02157 2.18386,1.41732 4.41692,1.4498l0.83071,-0.00253c0.1241,-0.00172 0.28837,-0.00407 0.51237,-0.00727c0.048,-0.456 0.108,-0.72 0.312,-1.272l-0.5727,0.04008c-0.21459,0.01219 -0.39131,0.01762 -0.59165,0.01931l-0.15565,0.00061c-2.496,0 -3.492,-0.312 -4.296,-1.32c0.228,-0.756 0.396,-1.548 0.492,-2.328l0.2178,-1.977c0.00338,-0.01976 0.00651,-0.03438 0.0102,-0.051c-0.18,0.024 -0.42,0.036 -0.768,0.036l-0.432,0l0.36,-0.744l0,0l0.45638,-0.93236l0,0l0.44546,-1.00302c0.0103,-0.0209 0.02124,-0.04277 0.03416,-0.06862c0.204,0.384 0.288,0.576 0.408,0.996l0.57,-0.0975c0.183,-0.0345 0.42,-0.0825 0.894,-0.1785l0,5.628zm-6.984,0.648l1.008,0l0,1.212l-1.008,0l0,-1.212zm-0.984,-6.792c0.288,-0.036 0.54,-0.048 0.96,-0.048l1.104,0l0.37689,0.00444c0.22578,0.00623 0.40711,0.01956 0.58311,0.04356l0,-1.164c-0.25714,0.04114 -0.44376,0.05584 -0.77899,0.0592l-1.28501,0.0008c-0.456,0 -0.66,-0.012 -0.96,-0.06l0,1.164zm-0.384,1.752c0.276,-0.036 0.516,-0.048 0.924,-0.048l2.09318,0.00191c0.27897,0.00461 0.40549,0.01809 0.58282,0.04609l0,-1.224l-0.20809,0.02526c-0.17983,0.01662 -0.38677,0.02274 -0.70391,0.02274l-1.764,0c-0.42,0 -0.648,-0.012 -0.924,-0.06l0,1.236zm0.384,1.716c0.18857,-0.02571 0.29755,-0.03306 0.48,-0.03516l1.728,-0.00084c0.348,0 0.48,0.012 0.72,0.036l0,-1.128c-0.16286,0.02571 -0.26449,0.03306 -0.44921,0.03516l-1.73479,0.00084c-0.372,0 -0.504,-0.012 -0.744,-0.036l0,1.128zm0,1.692c0.18,-0.02571 0.29265,-0.03306 0.47353,-0.03516l1.71047,-0.00084c0.372,0 0.504,0.012 0.744,0.036l0,-1.128c-0.16286,0.02571 -0.27061,0.03306 -0.45883,0.03516l-1.72517,0.00084c-0.372,0 -0.504,-0.012 -0.744,-0.036l0,1.128zm16.87467,-3.036l0,2.208l-1.86,0l-0.44944,-0.0045c-0.40781,-0.009 -0.70256,-0.0315 -0.99056,-0.0675l0,1.32c0.408,-0.048 0.888,-0.072 1.452,-0.072l1.848,0l0,2.544l-3.084,0c-0.636,0 -1.152,-0.024 -1.668,-0.084l0,1.368c0.564,-0.06 1.08,-0.084 1.704,-0.084l7.344,0c0.636,0 1.068,0.024 1.632,0.084l0,-1.368c-0.48,0.06 -0.984,0.084 -1.668,0.084l-2.88,0l0,-2.544l2.076,0c0.564,0 1.044,0.024 1.476,0.072l0,-1.32c-0.396,0.048 -0.876,0.072 -1.476,0.072l-2.076,0l0,-2.208l2.532,0c0.576,0 1.068,0.024 1.584,0.072l0,-1.32c-0.492,0.048 -1.008,0.072 -1.62,0.072l-2.496,0l0,-0.924c0,-0.636 0.024,-1.032 0.072,-1.428l-1.536,0c0.05143,0.38057 0.0764,0.70824 0.08249,1.18706l0.00151,1.16494l-1.956,0l0.29534,-0.81551c0.01053,-0.03061 0.02009,-0.05878 0.02866,-0.08449l0.09787,-0.34087l0,0l0.10399,-0.27204c0.00997,-0.03044 0.01585,-0.05395 0.02614,-0.09509l-1.368,-0.336l-0.03957,0.24863c-0.04443,0.24187 -0.10743,0.48037 -0.22443,0.86737c-0.408,1.332 -1.128,2.592 -2.028,3.504c0.396,0.276 0.672,0.564 0.984,1.02c0.66,-0.768 1.14,-1.488 1.632,-2.52l2.448,0zm8.64266,5.94c0,0.564 -0.024,1.044 -0.072,1.452l1.428,0l0,-0.72l5.58,0l0,0.72l1.452,0c-0.04114,-0.37029 -0.06465,-0.71412 -0.07053,-1.19776l-0.00147,-8.00624c0,-0.42 0.012,-0.768 0.06,-1.224c-0.30857,0.04114 -0.62596,0.05584 -1.06551,0.0592l-6.03849,0.0008l-0.50533,-0.00489c-0.30933,-0.00711 -0.57067,-0.02311 -0.82667,-0.05511c0.036,0.396 0.06,0.816 0.06,1.284l0,7.692zm1.356,-7.644l5.58,0l0,2.784l-5.58,0l0,-2.784zm0,4.044l5.58,0l0,3.072l-5.58,0l0,-3.072z"/>
   </g>
  </g>
 </g>
</svg>