<svg width="48" height="48" xmlns="http://www.w3.org/2000/svg" version="1.1">
 <!-- Generator: Sketch 58 (84663) - https://sketch.com -->
 <title>birthday</title>
 <desc>Created with Sketch.</desc>

 <g>
  <title>Layer 1</title>
  <ellipse stroke-width="0" ry="22.5" rx="22.5" id="svg_3" cy="24.1923" cx="24.19232" stroke="#000" fill="#86ddc8"/>
  <text font-style="italic" font-weight="normal" xml:space="preserve" text-anchor="start" font-family="'Montserrat'" font-size="11" stroke-width="0" id="svg_4" y="20.92307" x="13.61539" stroke="#000" fill="#ffffff">本日</text>
  <text xml:space="preserve" text-anchor="start" font-family="Noto Sans JP" font-size="10" id="svg_5" y="34.76923" x="4.76924" stroke-width="0" stroke="#000" fill="#ffffff">あいてる</text>
 </g>
</svg>